{"mappings": [
    {
        "request": {
            "method": "POST",
            "urlPath": "/sms/api.twilio.com/2010-04-01/Accounts/valid-account-sid/Messages.json",
            "bodyPatterns": [ {
                  "equalTo": "To=%2B12345678&From=11111111&Body=test"
              }
            ],
            "basicAuth" : {
                "username" : "APIKEYSID",
                "password" : "APISECRETKEY"
            }
        },
        "response": {
            "status": 200,
            "jsonBody": {"sid": "SMaaf624f4073f4570b706740e6e395c69", "date_created": "Thu, 23 Dec 2021 22:13:32 +0000", "date_updated": "Thu, 23 Dec 2021 22:13:32 +0000", "date_sent": null, "account_sid": "AC2909fd6d5d6e7d88c255d92c4ff8ad1b", "to": "+31611346981", "from": "+12019879823", "messaging_service_sid": null, "body": "Xtest", "status": "queued", "num_segments": "1", "num_media": "0", "direction": "outbound-api", "api_version": "2010-04-01", "price": null, "price_unit": "USD", "error_code": null, "error_message": null, "uri": "/2010-04-01/Accounts/AC2909fd6d5d6e7d88c255d92c4ff8ad1b/Messages/SMaaf624f4073f4570b706740e6e395c69.json", "subresource_uris": {"media": "/2010-04-01/Accounts/AC2909fd6d5d6e7d88c255d92c4ff8ad1b/Messages/SMaaf624f4073f4570b706740e6e395c69/Media.json"}}  
        }
    },
    {
        "request": {
            "method": "POST",
            "urlPath": "/sms/api.twilio.com/2010-04-01/Accounts/valid-account-sid/Messages.json",
            "bodyPatterns": [ {
                  "equalTo": "To=%2B12345678&From=11111111&Body=test"
              }
            ],
            "basicAuth" : {
                "username" : "APIKEYSID",
                "password" : "INVALID"
            }
        },
        "response": {
            "status": 401,
            "jsonBody": {"code": 20003, "detail": "Your AccountSid or AuthToken was incorrect.", "message": "Authentication Error - invalid username", "more_info": "https://www.twilio.com/docs/errors/20003", "status": 401}  
        }
    }
]}